{
    "app-id": "org.seul.pingus.Pingus",
    "runtime": "org.freedesktop.Platform",
    "runtime-version": "20.08",
    "sdk": "org.freedesktop.Sdk",
    "rename-icon": "pingus",
    "rename-desktop-file": "pingus.desktop",
    "rename-appdata-file": "pingus.appdata.xml",
    "finish-args": [
        "--device=all",
        "--share=ipc",
        "--socket=x11",
        "--socket=pulseaudio",
        "--socket=wayland"
    ],
    "modules": [
        "shared-modules/jsoncpp/jsoncpp-1.8.json",
        "shared-modules/fmt/fmt-6.1.2.json",
        "shared-modules/sigc++/sigc++-2.9.3.json",
        {
            "name": "pingus",
            "buildsystem": "cmake-ninja",
            "config-opts": [
                "-DCMAKE_BUILD_TYPE=Release",
                "-DCMAKE_INSTALL_PREFIX:PATH=/app"
            ],
            "sources": [
                {
                    "type": "git",
                    "url": "https://gitlab.com/pingus/pingus.git",
                    "branch": "master"
                }
            ]
        }
    ]
}
